%YAML 1.1
%TAG !u! tag:unity3d.com,2011:
--- !u!114 &11400000
MonoBehaviour:
  m_ObjectHideFlags: 0
  m_CorrespondingSourceObject: {fileID: 0}
  m_PrefabInstance: {fileID: 0}
  m_PrefabAsset: {fileID: 0}
  m_GameObject: {fileID: 0}
  m_Enabled: 1
  m_EditorHideFlags: 0
  m_Script: {fileID: 11500000, guid: 66e7b3b812e8c6242ac3c711e8357439, type: 3}
  m_Name: ISFJ
  m_EditorClassIdentifier: 
  code: ISFJ
  title: "\u5929\u5929\u52A0\u73ED\u4F46\u529F\u52DE\u90FD\u4E0D\u5C6C\u65BC\u81EA\u5DF1\u7684\u52D5\u756B\u5E2B"
  titleDecoration: "\u5403\u82E6\u7576\u5403\u88DC"
  description: "\u4F60\u975E\u5E38\u7167\u9867\u4ED6\u4EBA\u611F\u53D7\uFF0C\u6709\u6642\u751A\u81F3\u56E0\u6B64\u5FD8\u8A18\u7167\u9867\u81EA\u5DF1\u3002\u96D6\u7136\u8FFD\u6C42\u7A69\u5B9A\uFF0C\u4F46\u5728\u5F97\u5230\u5C0A\u91CD\u7684\u72C0\u6CC1\u4E0B\uFF0C\u9084\u662F\u9858\u610F\u63A5\u53D7\u6539\u8B8A\uFF0C\u662F\u5FB9\u5E95\u7684\u5229\u4ED6\u4E3B\u7FA9\u3002\u518D\u52A0\u4E0A\u6975\u91CD\u7684\u8CAC\u4EFB\u611F\uFF0C\u8B93\u4F60\u5728\u5718\u968A\u4E4B\u4E2D\u4E0D\u53EF\u6216\u7F3A\u3002\u8ACB\u8A18\u4F4F\uFF0C\u8981\u5584\u5F85\u81EA\u5DF1\u3002"
  myShubi: {fileID: 21300000, guid: f13d9aecd494efd4e9dd3faff8b7f03f, type: 3}
  likeShubi: {fileID: 11400000, guid: 7ea2715a2d065aa4e83d6a8cde0022fd, type: 2}
  dislikeShubi: {fileID: 11400000, guid: 4a4311dc75127cb41be33b4f7ca6ecfe, type: 2}
  animeCharacters:
  - {fileID: 11400000, guid: fc96d83207f53e24c9529c5c5ec56df4, type: 2}
  - {fileID: 11400000, guid: 2502dfee6d914bb48a172112cdff67cd, type: 2}
  - {fileID: 11400000, guid: 1f16434917e76834da8d22f662ca2734, type: 2}
  type: 1
