%YAML 1.1
%TAG !u! tag:unity3d.com,2011:
--- !u!114 &11400000
MonoBehaviour:
  m_ObjectHideFlags: 0
  m_CorrespondingSourceObject: {fileID: 0}
  m_PrefabInstance: {fileID: 0}
  m_PrefabAsset: {fileID: 0}
  m_GameObject: {fileID: 0}
  m_Enabled: 1
  m_EditorHideFlags: 0
  m_Script: {fileID: 11500000, guid: 3ba13b3868f42a242980b7d43bc9de31, type: 3}
  m_Name: "\u5169\u6D25\u52D8\u5409"
  m_EditorClassIdentifier: 
  name: "\u5169\u6D25\u52D8\u5409"
  image: {fileID: 21300000, guid: 6f8586e28cdf09f4aa06206e9d2e6997, type: 3}
