%YAML 1.1
%TAG !u! tag:unity3d.com,2011:
--- !u!114 &11400000
MonoBehaviour:
  m_ObjectHideFlags: 0
  m_CorrespondingSourceObject: {fileID: 0}
  m_PrefabInstance: {fileID: 0}
  m_PrefabAsset: {fileID: 0}
  m_GameObject: {fileID: 0}
  m_Enabled: 1
  m_EditorHideFlags: 0
  m_Script: {fileID: 11500000, guid: 3ba13b3868f42a242980b7d43bc9de31, type: 3}
  m_Name: "\u9B6F\u592B"
  m_EditorClassIdentifier: 
  name: "\u9B6F\u592B"
  image: {fileID: 21300000, guid: 975cad6710250394a8cdc8c2b83b8e9a, type: 3}
